<?xml version="1.0" standalone="no"?>
<!DOCTYPE svg PUBLIC "-//W3C//DTD SVG 20010904//EN"
 "http://www.w3.org/TR/2001/REC-SVG-20010904/DTD/svg10.dtd">
<svg version="1.0" xmlns="http://www.w3.org/2000/svg"
 width="996.000000pt" height="996.000000pt" viewBox="0 0 996.000000 996.000000"
 preserveAspectRatio="xMidYMid meet">
<metadata>
Created by potrace 1.11, written by Peter Selinger 2001-2013
</metadata>
<g transform="translate(0.000000,996.000000) scale(0.100000,-0.100000)"
fill="#000000" stroke="none">
<path d="M0 4980 l0 -4980 4980 0 4980 0 0 4980 0 4980 -4980 0 -4980 0 0
-4980z m8623 3438 c-6 -7 -119 -160 -252 -341 l-241 -327 0 -1420 0 -1419 63
-3 62 -3 52 -170 c28 -93 52 -175 52 -181 1 -6 -51 -58 -114 -115 l-115 -104
3 -640 2 -640 43 -3 42 -3 0 -85 c0 -68 3 -84 15 -84 18 0 18 -8 0 -40 -8 -14
-14 -35 -15 -46 0 -12 -6 -24 -14 -27 -8 -3 -60 -91 -116 -196 l-101 -191
-192 0 -192 0 -35 -60 c-29 -50 -40 -60 -62 -60 -28 0 -28 -1 -28 -65 l0 -65
-45 0 -45 0 0 -300 0 -300 -315 0 -315 0 0 300 0 300 -45 0 -45 0 0 65 c0 62
-1 65 -24 65 -18 0 -32 14 -60 60 l-37 60 -510 0 -510 0 -37 -60 c-31 -49 -42
-60 -64 -60 -28 0 -28 -1 -28 -64 l0 -65 -42 -3 -43 -3 -3 -297 -2 -298 -315
0 -315 0 0 300 0 300 -45 0 -45 0 0 65 c0 64 0 65 -27 65 -24 0 -34 10 -62 60
l-35 60 -497 0 -497 0 -34 -57 c-26 -45 -40 -59 -61 -61 -26 -3 -27 -5 -27
-68 l0 -64 -45 0 -45 0 0 -300 0 -300 -315 0 -315 0 0 300 0 300 -45 0 -45 0
0 65 c0 62 -1 65 -24 65 -18 0 -33 14 -64 65 l-41 65 -232 2 -233 3 -72 180
c-39 99 -77 185 -83 192 -6 7 -11 19 -11 28 0 9 -7 31 -14 50 -13 31 -13 35 0
35 11 0 14 17 14 85 l0 85 75 0 75 0 0 643 0 642 -110 103 c-61 57 -110 110
-110 119 0 16 96 328 106 344 3 5 30 9 60 9 l54 0 0 1418 0 1418 -243 330
c-134 182 -247 336 -251 342 -5 9 861 12 3595 12 2880 0 3599 -3 3592 -12z"/>
<path d="M1662 8312 c8 -19 254 -351 261 -351 4 -1 7 24 7 54 l0 55 3100 0
3100 0 0 -56 c0 -30 4 -53 9 -50 8 5 234 311 255 344 6 9 -670 12 -3364 12
-1855 0 -3370 -4 -3368 -8z"/>
<path d="M2050 6435 l0 -1525 2980 0 2980 0 0 1525 0 1525 -2980 0 -2980 0 0
-1525z m1488 973 l-3 -373 -587 -3 -588 -2 0 375 0 375 590 0 590 0 -2 -372z
m1332 -3 l0 -375 -590 0 -590 0 0 375 0 375 590 0 590 0 0 -375z m1380 0 l0
-375 -587 2 -588 3 -3 373 -2 372 590 0 590 0 0 -375z m1460 0 l0 -375 -590 0
-590 0 0 375 0 375 590 0 590 0 0 -375z m-4175 -1520 l0 -880 -587 -3 -588 -2
0 885 0 885 588 -2 587 -3 0 -880z m1335 0 l0 -885 -590 0 -590 0 0 885 0 885
590 0 590 0 0 -885z m1380 0 l0 -885 -587 2 -588 3 -3 870 c-1 479 0 876 3
883 3 9 131 12 590 12 l585 0 0 -885z m1460 0 l0 -885 -590 0 -590 0 0 885 0
885 590 0 590 0 0 -885z"/>
<path d="M2480 7405 l0 -265 465 0 465 0 0 265 0 265 -465 0 -465 0 0 -265z"/>
<path d="M3810 7405 l0 -265 470 0 470 0 0 265 0 265 -470 0 -470 0 0 -265z"/>
<path d="M5200 7405 l0 -265 465 0 465 0 0 265 0 265 -465 0 -465 0 0 -265z"/>
<path d="M6650 7405 l0 -265 470 0 470 0 0 265 0 265 -470 0 -470 0 0 -265z"/>
<path d="M2480 5885 l0 -775 465 0 465 0 0 775 0 775 -465 0 -465 0 0 -775z"/>
<path d="M3810 5885 l0 -775 470 0 470 0 0 775 0 775 -470 0 -470 0 0 -775z"/>
<path d="M5200 5885 l0 -775 465 0 465 0 0 775 0 775 -465 0 -465 0 0 -775z"/>
<path d="M6657 6653 c-4 -3 -7 -352 -7 -775 l0 -768 470 0 470 0 0 775 0 775
-463 0 c-255 0 -467 -3 -470 -7z"/>
<path d="M1871 4691 c-17 -55 -31 -104 -31 -109 0 -5 20 -26 45 -46 l45 -37 0
95 0 96 3103 -2 3102 -3 3 -94 3 -94 39 38 c22 22 40 46 39 55 0 8 -13 56 -28
105 l-29 90 -3130 3 -3130 2 -31 -99z"/>
<path d="M2055 4568 c-3 -7 -4 -350 -3 -763 l3 -750 2978 -3 2977 -2 -2 762
-3 763 -2973 3 c-2373 2 -2974 0 -2977 -10z m1495 -763 l0 -695 -632 2 -633 3
-3 680 c-1 374 0 686 3 693 3 9 140 12 635 12 l630 0 0 -695z m2790 0 l0 -695
-1362 2 -1363 3 -3 680 c-1 374 0 686 3 693 3 9 286 12 1365 12 l1360 0 0
-695z m1375 0 l0 -690 -635 0 -635 0 -3 680 c-1 374 0 686 3 693 3 10 136 12
637 10 l633 -3 0 -690z"/>
<path d="M2400 3805 l0 -575 515 0 515 0 0 575 0 575 -515 0 -515 0 0 -575z"/>
<path d="M3730 3805 l0 -575 1245 0 1245 0 0 575 0 575 -1245 0 -1245 0 0
-575z"/>
<path d="M6570 3805 l0 -575 510 0 510 0 0 575 0 575 -510 0 -510 0 0 -575z"/>
<path d="M1900 2910 l0 -30 3100 0 3100 0 0 30 0 30 -3100 0 -3100 0 0 -30z"/>
<path d="M1930 2763 c0 -4 23 -65 52 -135 l52 -128 223 0 223 0 41 -65 41 -65
49 0 49 0 0 -65 0 -65 45 0 45 0 0 -300 0 -300 195 0 195 0 0 300 0 300 45 0
45 0 0 65 0 65 49 0 49 0 38 65 38 65 567 0 567 0 41 -65 40 -65 51 0 50 0 0
-65 0 -65 45 0 45 0 0 -300 0 -300 190 0 190 0 0 300 0 300 45 0 45 0 0 65 0
65 48 0 48 0 39 65 40 65 581 0 582 0 38 -65 39 -65 53 0 52 0 0 -64 0 -65 43
-3 42 -3 3 -297 2 -298 190 0 190 0 0 294 0 295 45 7 45 6 0 64 0 64 49 0 49
0 41 65 41 65 191 2 190 3 70 133 70 132 -3065 0 c-1686 0 -3066 -3 -3066 -7z"/>
</g>
</svg>
